…
``` r
orangejuice
```

    ## # A tibble: 1,070 x 18
    ##    Purchase WeekofPurchase StoreID PriceCH PriceMM DiscCH DiscMM SpecialCH
    ##    <chr>             <int>   <int>   <dbl>   <dbl>  <dbl>  <dbl>     <int>
    ##  1 CH                  237       1    1.75    1.99   0       0           0
    ##  2 CH                  239       1    1.75    1.99   0       0.3         0
    ##  3 CH                  245       1    1.86    2.09   0.17    0           0
    ##  4 MM                  227       1    1.69    1.69   0       0           0
    ##  5 CH                  228       7    1.69    1.69   0       0           0
    ##  6 CH                  230       7    1.69    1.99   0       0           0
    ##  7 CH                  232       7    1.69    1.99   0       0.4         1
    ##  8 CH                  234       7    1.75    1.99   0       0.4         1
    ##  9 CH                  235       7    1.75    1.99   0       0.4         0
    ## 10 CH                  238       7    1.75    1.99   0       0.4         0
    ## # ... with 1,060 more rows, and 10 more variables: SpecialMM <int>,
    ## #   LoyalCH <dbl>, SalePriceMM <dbl>, SalePriceCH <dbl>, PriceDiff <dbl>,
    ## #   Store7 <chr>, PctDiscMM <dbl>, PctDiscCH <dbl>, ListPriceDiff <dbl>,
    ## #   STORE <int>
…
